{
    "words": [
        "aarch64", // 64bit arm architecture
        "asos", // abbreviation of All Scenarios Operating System
        "automake", // generator of rather terrible but portable makefiles
        "autopkgtest", // suite of programs for testing Debian packages
        "autoremove", // auto-remove, argument for apt-get
        "autotools", // common name for auto{conf,make} amd libtool
        "backends", // plural of back-end
        "bindir", // variable holding the path of the binary (executable) directory
        "bogo", // from bogo-mips, fake indication of speed
        "bombsimon", // a GitHub profile name
        "bootdbus", // a sysota package name
        "boothandler", // a sysota package name
        "bootloader", // a particular spelling of boot-loader
        "BOOTNAME", // a RAUC variable name
        "bootup", // boot-up, manual page name
        "boumenot", // a GitHub profile name
        "buildvm", // a particular abbreviation of build virtual machine
        "busctl", // bus control tool, part of systemd
        "busybox", // collection of small command line programs
        "casync", // content-addressable sync
        "CFLAGS", // variable holding the flags to the C compiler
        "chmod", // change mode tool, part of coreutils or busybox
        "CLOEXEC", // close-on-exec flag for various system calls
        "cmdline", // abbreviation of command line
        "cobertura", // data format for exchanging code test coverage
        "Commentf", // format comment, a gopkg.in/check.v1 function
        "condfilter", // a sysota package name
        "coreutils", // core utilities, collection of command line programs
        "covermode", // coverage mode, command line option to Go
        "coverprofile", // coverage profile, command line option to Go
        "cpio", // old archiving program
        "CPPFLAGS", // variable holding the flags to the pre-processor
        "CREAT", // create flag for open system call
        "creativecommons", // particular spelling of creative commons
        "CURDIR", // a Make built-in variable
        "CXXFLAGS", // variable holding the flags to the C++ compiler
        "datadir", // autotools variable
        "dbus", // a particular spelling of D-Bus
        "dbustest", // sysota package name
        "dbusutil", // dbus utilities, a sysota package name
        "distro", // abbreviation of distribution
        "dtoverlay", // device tree overlay
        "EDID", // extended display identification data
        "edid", // lower case spelling of EDID
        "edsp", // enhanced DSP instructions
        "EEPROM", // Electrically-erasable, programmable read only memory
        "elif", // else-if
        "Embest", // company name
        "endef", // end definition, part of define ... endef syntax in Make
        "entr", // command line tool
        "errcheck", // missing error check tool for Go
        "esac", // shell case ... esac construct
        "eval", // make and shell evaluate function
        "fastmult", // fast multiplication
        "fdatasync", // file data synchronization system call
        "FDCWD", // file descriptor of current working directory
        "findstring", // find string, a make function
        "followkernel", // option specific to Raspberry Pi config.txt initramfs parameter
        "freedesktop", // free desktop organization
        "froz", // one of meta variable names
        "frozbonicator", // one of meta variable names
        "fwsim", // a sysota package name
        "genisoimage", // tool for creating ISO images
        "gitlab", // lower case spelling of GitLab
        "goconst", // duplicate constant tool for Go
        "gocover", // code test coverage tool for Go
        "godbus", // a Go library for D-Bus
        "GOMAXPROCS", // Go Maximum Processes, concurrency control variable for Go
        "gopath", // lower case spelling of GOPATH
        "gopkg", // https://gopkg.in Go package service
        "gordonklaus", // a GitHub profile name
        "GPIO", // general purpose input-output
        "gpio", // lower case spelling of GPIO
        "GPIOs", // plural form of GPIO
        "grub-editenv", // a command line tool
        "grub", // GRand Unified Bootloader
        "grubenv", // GRUB environment block
        "hawkbit", // a fleet management system
        "honnef", // a GitHub profile name
        "hotfixes", // hot fixes, used in zmk
        "iface", // abbreviation of interface
        "ifaces", // abbreviation of interfaces
        "ifeq", // if equal, make conditional construct
        "ifneq", // if not equal, make conditional construct
        "includedir", // variable holding the path to system header files
        "Ineff", // abbreviation of ineffectual
        "ineffassign", // ineffectual assignment tool for Go
        "infodir", // variable holding the path to the GNU info database, commonly /usr/share/info
        "initrd", // initial RAM disk
        "inode", // data structure related to file systems
        "inodes", // plural of inode
        "installable", // capable of being installed
        "installdbus", // a sysota package name
        "installtest", // a sysota package name
        "boothosted", // a sysota package name
        "errutil", // a sysota package name
        "atomicfile", // a sysota package name
        "marshalable", // capable of being marshalled
        "boottest", // a sysota package name
        "flatpak", // a container-based packaging system
        "busconfig", // D-Bus configuration specification element
        "opspec", // a sysota package name
        "readwrite", // read-write
        "realloc", // re-allocate
        "fullname", // full-name
        "objpath", // object path
        "nosyslog", // a command line switch to dbus-daemon
        "hasher", // something that hashes
        "hashers", // plural form of hasher
        "subdir", // sub-directory
        "gogrub", // a sysota package name
        "overscan", // over-scan
        "rootwait", // root-wait
        "bootloaders", // plural form of bootloader
        "ramdisk", // ram-disk
        "bootable", // capable of being booted
        "testbus", // a sysota package name
        "testhosted", // a sysota package name
        "Configurer", // capable of being configured
        "testutil", // a sysota package name
        "installhandler", // a sysota package name
        "introspectable", // capable of being introspected
        "jgautheron", // a GitHub profile name
        "journalctl", // journal control tool, part of systemd
        "kexec", // kernel exec, a kernel re-execution feature
        "keyout", // a command line option to openssl
        "kgdboc", // kernel debugger over console
        "kisielk", // a GitHub profile name
        "LDFLAGS", // variable holding options passed to the linker
        "libdir", // autotools variable
        "libexec", // directory with internal library executables
        "libexecdir", // variable holding the path of internal library executables directory
        "libtool", // part of autotools
        "localstatedir", // variable holding the path of local system state, commonly /var
        "LPAE", // large physical address extension
        "lzma", // compression algorithm
        "MAKECMDGOALS", // make command goals, make variable
        "makefiles", // plural form of makefile
        "mandb", // tool managing the database of manual pages
        "mandir", // variable holding the path of the directory with manual pages
        "metasyntactic", // a placeholder word used for variable names
        "mkdir", // make directory tool, part of coreutils or busybox
        "mksquashfs", // make squash file system tool
        "mmcblk", // multimedia card block device
        "mountpoint", // point of mounting a file system
        "netota", // sister project for SysOTA
        "newkey", // command line option to openssl
        "noappend", // particular spelling of no-append used by mksquashfs
        "nofork", // command line option to dbus-daemon
        "noinst", // no install, an automake term that prevents installation of a program
        "NOMATCH", // spread test function name
        "noninteractive", // a particular spelling of non-interactive
        "nopad", // particular spelling of no-pad used by mksquashfs
        "Nygard's", // possessive pronoun of Nygard
        "Nygard", // surname
        "OBJCFLAGS", // variable holding the flags to the Objective C compiler
        "OBJCXXFLAGS", // variable holding the flags to the Objective C++ compiler
        "objmgr", // a sysota package name
        "objs", // abbreviation of objects
        "ohos", // Open Harmony Operating System
        "oneshot", // one-shot, a systemd service unit type
        "Oniro", // Name of an Eclipse Foundation project
        "oniroproject", // Domain name related to Oniro Project
        "openat", // open at system call
        "oper", // abbreviation of operation
        "ostc", // Open Source Technology Center
        "ota", // Over The Air (update)
        "patsubst", // patter substitution, make function
        "pengutronix", // name of the company maintaining RAUC
        "pgrep", // process grep, command line tool
        "piboot", // Raspberry Pi boot loader name
        "picfg", // a sysota package name
        "pieeprom", // sysota package name
        "pimodel", // a sysota package name
        "pkgs", // particular abbreviation of packages
        "poweroff", // power-off, the command line program
        "printf", // format print, common function and tool name
        "procfs", // process file system, one of the Linux API file systems
        "Pryce's", // possessive pronoun of Pryce
        "Pryce", // first name
        "qemu", // lower case spelling of QEMU
        "QEMU", // tool for working with system virtual machines
        "Qisda", // company name
        "quux", // metasyntactic variable name
        "ramfsfile", // ram file system file, a config.txt parameter
        "raspi", // a particular abbreviation of Raspberry Pi
        "rauc", // lower case spelling of RAUC
        "raucadapter", // a sysota package name
        "raucbackend", // a sysota package name
        "raucboothosted", // a sysota package name
        "rauccustomboothandler", // a sysota package name
        "raucinstallhandler", // a sysota package name
        "raucinstallhosted", // a sysota package name
        "raucinterface", // a sysota package name
        "raucm", // RAUC manifest extension
        "raucpostinstallhandler", // a sysota package name
        "raucpreinstallhandler", // a sysota package name
        "raucs", // RAUC status file extension
        "rauctest", // a sysota package name
        "RDONLY", // read-only flag for various system calls
        "RDWR", // read write flag for open system call
        "renameat", // rename at system call
        "rootfs", // root file system
        "rootfstype", // root file system type
        "rshared", // mount propagation setting
        "runstatedir", // variable holding the path of the ephemeral state directory, commonly /var/run
        "sbin", // super-user binary (executables) directory
        "sbindir", // variable holding the path of super-user binary (executables) directory
        "sbsxsssas", // D-Bus method signature (not a word)
        "sharedstatedir", // variable holding the path of the shared state directory, rarely used, /com
        "SIGHUP", // hang-up signal
        "spdx", // lower case spelling of SPDX
        "squashdelta", // tool for computing delta between two squashfs images
        "squashfs", // squash file system
        "squashfstools", // a particular spelling of squashfs-tools, a sysota package name
        "squashgzip", // a sysota package name
        "squashlz", // a sysota package name
        "squashlzma", // a sysota package name
        "squashlzo", // a sysota package name
        "squashutil", // a sysota package name
        "squashxz", // a sysota package name
        "squashzstd", // a sysota package name
        "statehandler", // a sysota package name
        "staticcheck", // static check, make goal
        "statusfile", // RAUC status file
        "sublicensable", // capable of being sub-licensed
        "svcspec", // a particular abbreviation of service specification
        "symlink", // abbreviation of symbolic link
        "sysconfdir", // variable holding the path of system configuration directory, commonly /etc
        "sysfs", // one of Linux API file systems
        "sysinit", // a systemd target name
        "sysota", // a particular abbreviation of System OTA
        "sysotactl", // sysota control command line tool
        "sysotad", // System OTA daemon
        "systemctl", // systemd tool
        "systemd's", // possessive pronoun of systemd
        "systemd", // collection of system management tools which also contain a service manager
        "testboot", // a sysota package name
        "tmpfs", // venerable volatile file system
        "toolkits", // plural for tool kit
        "toolset", // a particular spelling of tool set
        "tryboot", // a particular spelling of try-boot
        "unbindable", // mount propagation setting
        "uncommenting", // removing comment marker, verb
        "unexport", // term related to removing objects or interfaces from D-Bus
        "unexported", // past tense of unexport
        "unexports", // third person singular of case of unexport
        "unmarshal", // the reverse of marshal
        "unmarshaled", // past tense of unmarshal
        "unmarshaler", // interface for unmarshaling values
        "unmarshaling", // continuous form of unmarshaling
        "unmarshals", // verb related to marshaling values in Go
        "unsquashfs", // extract files from a squashfs image, command line tool
        "unzstd", // decompression tool for zstd
        "updatehosted", // a sysota package name
        "userspace", // a particular spelling of user-space
        "waivable", // capable of being waived
        "webterm", // web terminal, a GitLab feature
        "xattr", // extended attribute
        "xattrs", // plural form of xattr
        "yocto", // Embedded Linux distribution
        "zmk", // library for make
        "zstd", // compression format
        "zyga", // nickname for Zygmunt
        "Zygmunt", // first name
        "zygoon" // another nickname for Zygmunt
    ]
}
